Population Projections · Data By Dan
…
    # retrieve the total population within the geospatial locations of the city
    ssp.pop$pop[i] <- extract(pop, loc, fun=sum, na.rm=TRUE)
    
    # remove the raster of the ssp to preserve memory
    remove(pop)
  }
  
  return(ssp.pop)
}

city.return <- getPop(city = "New York")

print(city.return)

## # A tibble: 50 x 2
##    ssp            pop
##    <chr>        <dbl>
##  1 ssp1_2010 17156037
##  2 ssp1_2020 18870048
##  3 ssp1_2030 20646093
##  4 ssp1_2040 22349629
##  5 ssp1_2050 23911058
##  6 ssp1_2060 25394230
##  7 ssp1_2070 26761340
##  8 ssp1_2080 27845943
##  9 ssp1_2090 28393756
## 10 ssp1_2100 28357502
## # ... with 40 more rows
…
