…
hist.annualdeaths.sf

## # A tibble: 187 x 7
##    station    year  ssp1  ssp2  ssp3  ssp4  ssp5
##    <chr>     <dbl> <dbl> <dbl> <dbl> <dbl> <dbl>
##  1 060010007  2011  34.5  34.5  34.5  34.5  34.5
##  2 060010009  2011  34.4  34.3  34.3  34.3  34.3
##  3 060010011  2011  34.3  34.3  34.3  34.3  34.3
##  4 060012001  2011  23.0  23.0  23.0  23.0  23.0
##  5 060050002  2011  34.5  34.5  34.5  34.5  34.5
##  6 060070002  2011  34.4  34.4  34.4  34.4  34.4
##  7 060070007  2011  34.5  34.5  34.5  34.5  34.5
##  8 060090001  2011  34.5  34.5  34.5  34.5  34.5
##  9 060111002  2011  34.5  34.5  34.5  34.5  34.5
## 10 060130002  2011  34.5  34.5  34.5  34.5  34.4
## # ... with 177 more rows
…
future.excess.annualdeaths.sf

## # A tibble: 187 x 5
##    ssp1.excess ssp2.excess ssp3.excess ssp4.excess ssp5.excess
##          <dbl>       <dbl>       <dbl>       <dbl>       <dbl>
##  1        13.1        12.2        5.15        9.81        19.7
##  2        13.0        12.1        5.05        9.68        19.5
##  3        13.0        12.1        5.10        9.73        19.5
##  4        24.5        23.6       16.5        21.2         31.0
##  5        13.2        12.3        5.19        9.85        19.7
##  6        12.8        11.9        4.88        9.50        19.3
##  7        12.8        11.9        4.85        9.47        19.3
##  8        13.2        12.2        5.17        9.83        19.7
##  9        12.7        11.8        4.78        9.40        19.2
## 10        13.0        12.1        5.06        9.70        19.5
## # ... with 177 more rows
…
